<?xml version="1.1" encoding="UTF-8"?>
<testsuite name="pk.labs.LabB.P1_ComponentTest" tests="3" failures="0" errors="0" timestamp="2013-12-17T18:56:40" hostname="kubuaq-Komputer" time="0.234">
  <properties/>
  <testcase name="Component implementation should implement apropriate interface" classname="pk.labs.LabB.P1_ComponentTest" time="0.107"/>
  <testcase name="Component specification and implementation should be in aproprate jar file" classname="pk.labs.LabB.P1_ComponentTest" time="0.022"/>
  <testcase name="Component should not contain other public classes" classname="pk.labs.LabB.P1_ComponentTest" time="0.105"/>
  <system-out><![CDATA[]]></system-out>
  <system-err><![CDATA[]]></system-err>
</testsuite>
